…
To find mean and standard deviation of age by state, you could use
something like this,

``` r
d_HHP2020_24 %>%
  group_by(State) %>%
  summarize(
    avg = mean(Age),
    stdev = sd(Age), 
    n_obs = n()
  ) 
```

    ## # A tibble: 51 × 4
    ##    State                  avg stdev n_obs
    ##    <fct>                <dbl> <dbl> <int>
    ##  1 Alabama               52.5  16.0 13230
    ##  2 Alaska                50.9  15.8 15970
    ##  3 Arizona               54.4  16.4 26059
    ##  4 Arkansas              52.2  16.0 12931
    ##  5 California            52.0  15.9 71958
    ##  6 Colorado              51.5  16.1 24746
    ##  7 Connecticut           52.7  15.8 16499
    ##  8 Delaware              55.5  16.0 11555
    ##  9 District of Columbia  48.4  15.5 13008
    ## 10 Florida               55.7  16.0 33825
    ## # ℹ 41 more rows
…
``` r
d_HHP2020_24 %>%
  group_by(State) %>%
  summarize(
    age90th = quantile(Age,probs = 0.9),
    age10th = quantile(Age,probs = 0.1), 
    n_obs = n()
  ) %>%
  arrange(desc(age90th), .by_group = TRUE)
```

    ## # A tibble: 51 × 4
    ##    State          age90th age10th n_obs
    ##    <fct>            <dbl>   <dbl> <int>
    ##  1 Florida             76      33 33825
    ##  2 Arizona             75      31 26059
    ##  3 Delaware            75      33 11555
    ##  4 Hawaii              75      33 10694
    ##  5 New Mexico          75      33 17666
    ##  6 Maine               74      32 10524
    ##  7 Montana             74      31 11519
    ##  8 Nevada              74      32 15658
    ##  9 New Hampshire       74      32 15337
    ## 10 South Carolina      74      31 14910
    ## # ℹ 41 more rows
…
